name,price,flow,img
Gaseosa,20,10,https://i.imgur.com/ydGjlcO.png
Gorra,120,40,https://i.imgur.com/YBLA4xy.png
Lentes,500,380,https://i.imgur.com/5geXL7m.png
Piano,1000,500,https://i.imgur.com/gf31Gxp.png
Telefono,2000,700,https://i.imgur.com/BtctgXu.png
Guitarra,2500,1000,https://i.imgur.com/1lNkVuu.png
Compu,4000,1400,https://i.imgur.com/RHTzJ29.png
Moto,25000,40000,https://i.imgur.com/eDsFdYK.png
Moto ATR,25000,40000,https://i.imgur.com/7KVCusm.png
Auto,100000,60000,https://i.imgur.com/7rB8tZ3.png
Mansión,999999,99000,https://i.imgur.com/UkCLy4w.png
Gorra Dorada,1200,400,https://i.imgur.com/bpi9bLi.png
Lentes Dorados,5000,1800,https://i.imgur.com/cIczuEJ.png
Piano Dorado,1000,500,https://i.imgur.com/ZVxJFg6.png
Telefono Dorado,20000,7500,https://i.imgur.com/5uDXaey.png
Guitarra Dorada,24000,12000,https://i.imgur.com/FNBukTZ.png
Compu Dorada,40000,19000,https://i.imgur.com/vWSqnqi.png
Moto Dorada,250000,70000,https://i.imgur.com/IzYXn6U.png
Moto ATR Dorada,250000,70000,https://i.imgur.com/pWVdknb.png
Auto Dorado,500000,90000,https://i.imgur.com/H787iyo.png
